…
Looks interesting! First thing that comes to my mind is to check which countries have fought the most wars:

``` r
war %>% group_by(StateName) %>%
            summarise(n = n()) %>%
            arrange(desc(n))
```

    ## # A tibble: 105 x 2
    ##    StateName                    n
    ##    <chr>                    <int>
    ##  1 France                      19
    ##  2 United Kingdom              13
    ##  3 United States of America    13
    ##  4 China                       12
    ##  5 Turkey                      12
    ##  6 Italy                       10
    ##  7 Russia                      10
    ##  8 Japan                        9
    ##  9 Germany                      8
    ## 10 Egypt                        7
    ## # ... with 95 more rows
…
